module gitlab.com/mohan43u/tlcbroadcast/mod/tlcbroadcast

go 1.19

require (
	golang.org/x/net v0.0.0-20220225172249-27dd8689420f
	golang.org/x/oauth2 v0.0.0-20220309155454-6242fa91716a
	google.golang.org/api v0.73.0
)

require (
	cloud.google.com/go/compute v1.5.0 // indirect
	github.com/golang/groupcache v0.0.0-20200121045136-8c9f03a8e57e // indirect
	github.com/golang/protobuf v1.5.2 // indirect
	github.com/googleapis/gax-go/v2 v2.1.1 // indirect
	go.opencensus.io v0.23.0 // indirect
	golang.org/x/sys v0.0.0-20220310020820-b874c991c1a5 // indirect
	golang.org/x/text v0.3.7 // indirect
	google.golang.org/appengine v1.6.7 // indirect
	google.golang.org/genproto v0.0.0-20220310185008-1973136f34c6 // indirect
	google.golang.org/grpc v1.45.0 // indirect
	google.golang.org/protobuf v1.27.1 // indirect
)
